<?xml version="1.0" encoding="UTF-8"?>
<CustomTab xmlns="http://soap.sforce.com/2006/04/metadata">
    <icon>Glance_for_Salesforce/Glance_G_Icon_2.png</icon>
    <label>Glance User Settings</label>
    <mobileReady>false</mobileReady>
    <motif>Custom108: TV Widescreen</motif>
    <page>UserSettings</page>
</CustomTab>
