<?xml version="1.0" encoding="UTF-8"?>
<CustomTab xmlns="http://soap.sforce.com/2006/04/metadata">
    <label>Social Accounts with Surveys</label>
    <mobileReady>false</mobileReady>
    <motif>Custom53: Bell</motif>
    <page>SocialSetup</page>
</CustomTab>
